17C176C3CDA6194E230FCD7A6ABEBE6D.cache.js
user.agent safari

498919CBCDC2E03BCD8E859EC96A1475.cache.js
user.agent ie10

5B65869F72166E5A256587CE8CF79ACC.cache.js
user.agent ie9

88B33898A5DB32AB5A71D689A5BD52F5.cache.js
user.agent gecko1_8

F46BD68E02944A38BEC5790BED4509A3.cache.js
user.agent ie8

Devmode:devmode.js