028BC968C52D2D184E9EFB6ECAFD01DF.cache.js
user.agent ie10

58E8CBB296BBB60DD8EDAE9C0E857B36.cache.js
user.agent gecko1_8

673F2DE684E453EABF135AA3685D040B.cache.js
user.agent ie9

86F0513B4CB6C3BA93540780A24CE9CE.cache.js
user.agent ie8

9DB7793084C2A33320D4CAE46B584EDC.cache.js
user.agent safari

Devmode:devmode.js